…
#### Step 1: Convert to Binary Format

The first step is converting the continuous and categorical data into
binary (0/1) format. We de-select any non-predictive features. The
`binarize()` function then converts the features into binary features.

``` r
bank_marketing_campaign_binarized_tbl <- bank_marketing_campaign_tbl %>%
    select(-ID) %>%
    binarize(n_bins = 4, thresh_infreq = 0.01)

bank_marketing_campaign_binarized_tbl
#> # A tibble: 45,211 x 65
#>    `AGE__-Inf_33` AGE__33_39 AGE__39_48 AGE__48_Inf JOB__admin.
#>             <dbl>      <dbl>      <dbl>       <dbl>       <dbl>
#>  1              0          0          0           1           0
#>  2              0          0          1           0           0
#>  3              1          0          0           0           0
#>  4              0          0          1           0           0
#>  5              1          0          0           0           0
#>  6              0          1          0           0           0
#>  7              1          0          0           0           0
#>  8              0          0          1           0           0
#>  9              0          0          0           1           0
#> 10              0          0          1           0           0
#> # … with 45,201 more rows, and 60 more variables: JOB__blue.collar <dbl>,
#> #   JOB__entrepreneur <dbl>, JOB__housemaid <dbl>, JOB__management <dbl>,
#> #   JOB__retired <dbl>, JOB__self.employed <dbl>, JOB__services <dbl>,
#> #   JOB__student <dbl>, JOB__technician <dbl>, JOB__unemployed <dbl>,
#> #   JOB__OTHER <dbl>, MARITAL__divorced <dbl>, MARITAL__married <dbl>,
#> #   MARITAL__single <dbl>, EDUCATION__primary <dbl>,
#> #   EDUCATION__secondary <dbl>, EDUCATION__tertiary <dbl>,
#> #   EDUCATION__unknown <dbl>, DEFAULT__no <dbl>, DEFAULT__yes <dbl>,
#> #   `BALANCE__-Inf_72` <dbl>, BALANCE__72_448 <dbl>,
…
#### Step 2: Perform Correlation Analysis

The second step is to perform a correlation analysis between the
response (target = TERM\_DEPOSIT\_yes) and the rest of the features.
This returns a specially formatted tibble with the feature, the bin, and
the bin’s correlation to the target. The format is exactly what we need
for the next step - Producing the **Correlation
Funnel**

``` r
bank_marketing_campaign_correlated_tbl <- bank_marketing_campaign_binarized_tbl %>%
    correlate(target = TERM_DEPOSIT__yes)

bank_marketing_campaign_correlated_tbl
#> # A tibble: 65 x 3
#>    feature      bin      correlation
#>    <fct>        <chr>          <dbl>
#>  1 TERM_DEPOSIT no            -1.000
#>  2 TERM_DEPOSIT yes            1.000
#>  3 DURATION     319_Inf        0.318
#>  4 POUTCOME     success        0.307
#>  5 DURATION     -Inf_103      -0.191
#>  6 POUTCOME     unknown       -0.167
#>  7 CONTACT      unknown       -0.151
#>  8 HOUSING      no             0.139
#>  9 HOUSING      yes           -0.139
#> 10 CONTACT      cellular       0.136
#> # … with 55 more rows
```
…
