Speed Up Exploratory Data Analysis (EDA) with the Correlation Funnel • correlationfunnel
…
Step 2: Perform Correlation Analysis

The second step is to perform a correlation analysis between the response (target = TERM_DEPOSIT_yes) and the rest of the features. This returns a specially formatted tibble with the feature, the bin, and the bin’s correlation to the target. The format is exactly what we need for the next step - Producing the Correlation Funnel

marketing_campaign_correlated_tbl <- marketing_campaign_binarized_tbl %>%
    correlate(target = TERM_DEPOSIT__yes)

marketing_campaign_correlated_tbl
#> # A tibble: 74 x 3
#>    feature      bin      correlation
#>    <fct>        <chr>          <dbl>
#>  1 TERM_DEPOSIT no            -1.000
#>  2 TERM_DEPOSIT yes            1.000
#>  3 DURATION     319_Inf        0.318
#>  4 POUTCOME     success        0.307
#>  5 DURATION     -Inf_103      -0.191
#>  6 PDAYS        -OTHER         0.167
#>  7 PDAYS        -1            -0.167
#>  8 PREVIOUS     0             -0.167
#>  9 POUTCOME     unknown       -0.167
#> 10 CONTACT      unknown       -0.151
#> # … with 64 more rows
…
