Introducing Correlation Funnel - Customer Churn Example • correlationfunnel
…
Step 2 - Correlate to the Target

Next, we use correlate() to correlate the binary features to a target (in our case Customer Churn).

customer_churn_corr_tbl <- customer_churn_binarized_tbl %>%
  correlate(Churn__Yes)

customer_churn_corr_tbl
#> # A tibble: 60 x 3
#>    feature         bin              correlation
#>    <fct>           <chr>                  <dbl>
#>  1 Churn           No                    -1    
#>  2 Churn           Yes                    1    
#>  3 Contract        Month-to-month         0.405
#>  4 OnlineSecurity  No                     0.343
#>  5 TechSupport     No                     0.337
#>  6 tenure          -Inf_6                 0.309
#>  7 InternetService Fiber_optic            0.308
#>  8 Contract        Two_year              -0.302
#>  9 PaymentMethod   Electronic_check       0.302
#> 10 OnlineBackup    No                     0.268
#> # … with 50 more rows
…
