Methodology, Key Considerations, and FAQs • correlationfunnel
…
Highly skewed numeric data is tricky because the binning strategy does not conform well to the traditional quantile() approach for cutting data into bins. One bin tends to dominate.

To get around this issue, the binarize() function attempts to cut using the n_bins value provided by you.

When data becomes highly skewed, meaning one numeric value dominates so much that virtually all values are this value, the cuts are iteratively reduced until only 2 bins are left.

At that point the algorithm converts the values to factors, and anything that is not in the majority class gets a class of “OTHER” (or the value you provide as name_infreq).

We’ll show this process using skewed features in the marketing_campaign_tbl data that ships with correlationfunnel.

data("marketing_campaign_tbl")

marketing_campaign_tbl
#> # A tibble: 45,211 x 18
#>    ID      AGE JOB   MARITAL EDUCATION DEFAULT BALANCE HOUSING LOAN  CONTACT
#>    <chr> <dbl> <chr> <chr>   <chr>     <chr>     <dbl> <chr>   <chr> <chr>  
#>  1 2836     58 mana… married tertiary  no         2143 yes     no    unknown
#>  2 2837     44 tech… single  secondary no           29 yes     no    unknown
#>  3 2838     33 entr… married secondary no            2 yes     yes   unknown
#>  4 2839     47 blue… married unknown   no         1506 yes     no    unknown
#>  5 2840     33 unkn… single  unknown   no            1 no      no    unknown
#>  6 2841     35 mana… married tertiary  no          231 yes     no    unknown
#>  7 2842     28 mana… single  tertiary  no          447 yes     yes   unknown
#>  8 2843     42 entr… divorc… tertiary  yes           2 yes     no    unknown
#>  9 2844     58 reti… married primary   no          121 yes     no    unknown
#> 10 2845     43 tech… single  secondary no          593 yes     no    unknown
#> # … with 45,201 more rows, and 8 more variables: DAY <dbl>, MONTH <chr>,
#> #   DURATION <dbl>, CAMPAIGN <dbl>, PDAYS <dbl>, PREVIOUS <dbl>,
#> #   POUTCOME <chr>, TERM_DEPOSIT <chr>
…
We can see that binarize() recognizes this and bins accordingly.

marketing_campaign_tbl %>%
  select(CAMPAIGN) %>%
  binarize()
#> # A tibble: 45,211 x 3
#>    `CAMPAIGN__-Inf_2` CAMPAIGN__2_3 CAMPAIGN__3_Inf
#>                 <dbl>         <dbl>           <dbl>
#>  1                  1             0               0
#>  2                  1             0               0
#>  3                  1             0               0
#>  4                  1             0               0
#>  5                  1             0               0
#>  6                  1             0               0
#>  7                  1             0               0
#>  8                  1             0               0
#>  9                  1             0               0
#> 10                  1             0               0
#> # … with 45,201 more rows
…
We can see that binarize() converts this feature to categorical data then the categorical threshold takes over. Just specify the proportion of low frequency categories to retain.

marketing_campaign_tbl %>%
  select(PDAYS) %>%
  binarize()
#> # A tibble: 45,211 x 2
#>    `PDAYS__-1` `PDAYS__-OTHER`
#>          <dbl>           <dbl>
#>  1           1               0
#>  2           1               0
#>  3           1               0
#>  4           1               0
#>  5           1               0
#>  6           1               0
#>  7           1               0
#>  8           1               0
#>  9           1               0
#> 10           1               0
#> # … with 45,201 more rows

3. How does the Correlation Funnel Work With Categorical Data?

We’ve actually already seen this. The binarization processed when performed on numeric data converts the data to bins and then one-hot encodes the result. The bins are categories.

The process for categorical data works the same as for numeric (minus the binning process).

Let’s take a categorical feature from our marketing_campaign_tbl.

marketing_campaign_tbl %>%
  select(EDUCATION)
#> # A tibble: 45,211 x 1
#>    EDUCATION
#>    <chr>    
#>  1 tertiary 
#>  2 secondary
#>  3 secondary
#>  4 unknown  
#>  5 unknown  
#>  6 tertiary 
#>  7 tertiary 
#>  8 tertiary 
#>  9 primary  
#> 10 secondary
#> # … with 45,201 more rows

3.1 One-Hot Encoding vs Dummy Encoding

The binarize() function uses One-Hot Encoding by default. The Dummy Encoding Method has a key flaw for Correlation Analysis in that it does not show all of the categorical levels. This affects the Correlation Funnel Plot causing loss of potentially highly correlated bins in the visualization.

One-Hot Encoding is the process of converting a categorical feature into a series of binary features. The default in binarize() is to perform one-hot encoding, which returns the number of columns equal to the number of levels in the category. This creates a series of binary flags to use in the Correlation Analysis.

marketing_campaign_tbl %>%
  select(EDUCATION) %>%
  binarize(one_hot = TRUE)
#> # A tibble: 45,211 x 4
#>    EDUCATION__primary EDUCATION__secondary EDUCATION__tertiary EDUCATION__unkno…
#>                 <dbl>                <dbl>               <dbl>             <dbl>
#>  1                  0                    0                   1                 0
#>  2                  0                    1                   0                 0
#>  3                  0                    1                   0                 0
#>  4                  0                    0                   0                 1
#>  5                  0                    0                   0                 1
#>  6                  0                    0                   1                 0
#>  7                  0                    0                   1                 0
#>  8                  0                    0                   1                 0
#>  9                  1                    0                   0                 0
#> 10                  0                    1                   0                 0
#> # … with 45,201 more rows

Another popular method in statistical analysis is Dummy Encoding. The only real difference is that the number of columns are equal to the number of levels minus 1. When zeros are present in each of the new columns (secondary, tertiary, unknown) such as in Row 9, the value means not secondary, tertiary, or unknown, which in turn means primary.

marketing_campaign_tbl %>%
  select(EDUCATION) %>%
  binarize(one_hot = FALSE)
#> # A tibble: 45,211 x 3
#>    EDUCATION__secondary EDUCATION__tertiary EDUCATION__unknown
#>                   <dbl>               <dbl>              <dbl>
#>  1                    0                   1                  0
#>  2                    1                   0                  0
#>  3                    1                   0                  0
#>  4                    0                   0                  1
#>  5                    0                   0                  1
#>  6                    0                   1                  0
#>  7                    0                   1                  0
#>  8                    0                   1                  0
#>  9                    0                   0                  0
#> 10                    1                   0                  0
#> # … with 45,201 more rows
…
