Turn data with numeric, categorical features into binary data. — binarize • correlationfunnel
…
library(dplyr)
#> 
#> Attaching package: ‘dplyr’
#> The following objects are masked from ‘package:stats’:
#> 
#>     filter, lag
#> The following objects are masked from ‘package:base’:
#> 
#>     intersect, setdiff, setequal, union
library(correlationfunnel)

marketing_campaign_tbl %>%
    select(-ID) %>%
    binarize()
#> # A tibble: 45,211 x 74
#>    `AGE__-Inf_33` AGE__33_39 AGE__39_48 AGE__48_Inf JOB__admin. `JOB__blue-coll…
#>             <dbl>      <dbl>      <dbl>       <dbl>       <dbl>            <dbl>
#>  1              0          0          0           1           0                0
#>  2              0          0          1           0           0                0
#>  3              1          0          0           0           0                0
#>  4              0          0          1           0           0                1
#>  5              1          0          0           0           0                0
#>  6              0          1          0           0           0                0
#>  7              1          0          0           0           0                0
#>  8              0          0          1           0           0                0
#>  9              0          0          0           1           0                0
#> 10              0          0          1           0           0                0
#> # … with 45,201 more rows, and 68 more variables: JOB__entrepreneur <dbl>,
#> #   JOB__housemaid <dbl>, JOB__management <dbl>, JOB__retired <dbl>,
#> #   `JOB__self-employed` <dbl>, JOB__services <dbl>, JOB__student <dbl>,
#> #   JOB__technician <dbl>, JOB__unemployed <dbl>, `JOB__-OTHER` <dbl>,
#> #   MARITAL__divorced <dbl>, MARITAL__married <dbl>, MARITAL__single <dbl>,
#> #   EDUCATION__primary <dbl>, EDUCATION__secondary <dbl>,
#> #   EDUCATION__tertiary <dbl>, EDUCATION__unknown <dbl>, DEFAULT__no <dbl>,
#> #   DEFAULT__yes <dbl>, `BALANCE__-Inf_72` <dbl>, BALANCE__72_448 <dbl>,
#> #   BALANCE__448_1428 <dbl>, BALANCE__1428_Inf <dbl>, HOUSING__no <dbl>,
…
