Correlate a response (target) to features in a data set. — correlate • correlationfunnel
…
    See also

    binarize(), plot_correlation_funnel()

    Examples

library(dplyr)
library(correlationfunnel)

marketing_campaign_tbl %>%
    select(-ID) %>%
    binarize() %>%
    correlate(TERM_DEPOSIT__yes)
#> # A tibble: 74 x 3
#>    feature      bin      correlation
#>    <fct>        <chr>          <dbl>
#>  1 TERM_DEPOSIT no            -1.000
#>  2 TERM_DEPOSIT yes            1.000
#>  3 DURATION     319_Inf        0.318
#>  4 POUTCOME     success        0.307
#>  5 DURATION     -Inf_103      -0.191
#>  6 PDAYS        -OTHER         0.167
#>  7 PDAYS        -1            -0.167
#>  8 PREVIOUS     0             -0.167
#>  9 POUTCOME     unknown       -0.167
#> 10 CONTACT      unknown       -0.151
#> # … with 64 more rows
…
